%YAML 1.1
%TAG !u! tag:unity3d.com,2011:
--- !u!29 &1
OcclusionCullingSettings:
  m_ObjectHideFlags: 0
  serializedVersion: 2
  m_OcclusionBakeSettings:
    smallestOccluder: 5
    smallestHole: 0.25
    backfaceThreshold: 100
  m_SceneGUID: 00000000000000000000000000000000
  m_OcclusionCullingData: {fileID: 0}
--- !u!104 &2
RenderSettings:
  m_ObjectHideFlags: 0
  serializedVersion: 9
  m_Fog: 0
  m_FogColor: {r: 0.5, g: 0.5, b: 0.5, a: 1}
  m_FogMode: 3
  m_FogDensity: 0.01
  m_LinearFogStart: 0
  m_LinearFogEnd: 300
  m_AmbientSkyColor: {r: 0.212, g: 0.227, b: 0.259, a: 1}
  m_AmbientEquatorColor: {r: 0.114, g: 0.125, b: 0.133, a: 1}
  m_AmbientGroundColor: {r: 0.047, g: 0.043, b: 0.035, a: 1}
  m_AmbientIntensity: 1
  m_AmbientMode: 0
  m_SubtractiveShadowColor: {r: 0.42, g: 0.478, b: 0.627, a: 1}
  m_SkyboxMaterial: {fileID: 10304, guid: 0000000000000000f000000000000000, type: 0}
  m_HaloStrength: 0.5
  m_FlareStrength: 1
  m_FlareFadeSpeed: 3
  m_HaloTexture: {fileID: 0}
  m_SpotCookie: {fileID: 10001, guid: 0000000000000000e000000000000000, type: 0}
  m_DefaultReflectionMode: 0
  m_DefaultReflectionResolution: 128
  m_ReflectionBounces: 1
  m_ReflectionIntensity: 1
  m_CustomReflection: {fileID: 0}
  m_Sun: {fileID: 0}
  m_IndirectSpecularColor: {r: 0.44657898, g: 0.4964133, b: 0.5748178, a: 1}
  m_UseRadianceAmbientProbe: 0
--- !u!157 &3
LightmapSettings:
  m_ObjectHideFlags: 0
  serializedVersion: 12
  m_GIWorkflowMode: 1
  m_GISettings:
    serializedVersion: 2
    m_BounceScale: 1
    m_IndirectOutputScale: 1
    m_AlbedoBoost: 1
    m_EnvironmentLightingMode: 0
    m_EnableBakedLightmaps: 1
    m_EnableRealtimeLightmaps: 0
  m_LightmapEditorSettings:
    serializedVersion: 12
    m_Resolution: 2
    m_BakeResolution: 40
    m_AtlasSize: 1024
    m_AO: 0
    m_AOMaxDistance: 1
    m_CompAOExponent: 1
    m_CompAOExponentDirect: 0
    m_ExtractAmbientOcclusion: 0
    m_Padding: 2
    m_LightmapParameters: {fileID: 0}
    m_LightmapsBakeMode: 1
    m_TextureCompression: 1
    m_FinalGather: 0
    m_FinalGatherFiltering: 1
    m_FinalGatherRayCount: 256
    m_ReflectionCompression: 2
    m_MixedBakeMode: 2
    m_BakeBackend: 1
    m_PVRSampling: 1
    m_PVRDirectSampleCount: 32
    m_PVRSampleCount: 512
    m_PVRBounces: 2
    m_PVREnvironmentSampleCount: 256
    m_PVREnvironmentReferencePointCount: 2048
    m_PVRFilteringMode: 1
    m_PVRDenoiserTypeDirect: 1
    m_PVRDenoiserTypeIndirect: 1
    m_PVRDenoiserTypeAO: 1
    m_PVRFilterTypeDirect: 0
    m_PVRFilterTypeIndirect: 0
    m_PVRFilterTypeAO: 0
    m_PVREnvironmentMIS: 1
    m_PVRCulling: 1
    m_PVRFilteringGaussRadiusDirect: 1
    m_PVRFilteringGaussRadiusIndirect: 5
    m_PVRFilteringGaussRadiusAO: 2
    m_PVRFilteringAtrousPositionSigmaDirect: 0.5
    m_PVRFilteringAtrousPositionSigmaIndirect: 2
    m_PVRFilteringAtrousPositionSigmaAO: 1
    m_ExportTrainingData: 0
    m_TrainingDataDestination: TrainingData
    m_LightProbeSampleCountMultiplier: 4
  m_LightingDataAsset: {fileID: 0}
  m_LightingSettings: {fileID: 0}
--- !u!196 &4
NavMeshSettings:
  serializedVersion: 2
  m_ObjectHideFlags: 0
  m_BuildSettings:
    serializedVersion: 2
    agentTypeID: 0
    agentRadius: 0.5
    agentHeight: 2
    agentSlope: 45
    agentClimb: 0.4
    ledgeDropHeight: 0
    maxJumpAcrossDistance: 0
    minRegionArea: 2
    manualCellSize: 0
    cellSize: 0.16666667
    manualTileSize: 0
    tileSize: 256
    accuratePlacement: 0
    maxJobWorkers: 0
    preserveTilesOutsideBounds: 0
    debug:
      m_Flags: 0
  m_NavMeshData: {fileID: 0}
--- !u!1001 &955384694
PrefabInstance:
  m_ObjectHideFlags: 0
  serializedVersion: 2
  m_Modification:
    m_TransformParent: {fileID: 1994781393}
    m_Modifications:
    - target: {fileID: 1410880384113558, guid: b471d26a5eac87b4086c90c7c0b76f4e, type: 3}
      propertyPath: m_Name
      value: PTK_Cube_1
      objectReference: {fileID: 0}
    - target: {fileID: 4009654013808098, guid: b471d26a5eac87b4086c90c7c0b76f4e, type: 3}
      propertyPath: m_RootOrder
      value: 1
      objectReference: {fileID: 0}
    - target: {fileID: 4009654013808098, guid: b471d26a5eac87b4086c90c7c0b76f4e, type: 3}
      propertyPath: m_LocalPosition.x
      value: 1.423
      objectReference: {fileID: 0}
    - target: {fileID: 4009654013808098, guid: b471d26a5eac87b4086c90c7c0b76f4e, type: 3}
      propertyPath: m_LocalPosition.y
      value: 0
      objectReference: {fileID: 0}
    - target: {fileID: 4009654013808098, guid: b471d26a5eac87b4086c90c7c0b76f4e, type: 3}
      propertyPath: m_LocalPosition.z
      value: 0.3297658
      objectReference: {fileID: 0}
    - target: {fileID: 4009654013808098, guid: b471d26a5eac87b4086c90c7c0b76f4e, type: 3}
      propertyPath: m_LocalRotation.w
      value: 1
      objectReference: {fileID: 0}
    - target: {fileID: 4009654013808098, guid: b471d26a5eac87b4086c90c7c0b76f4e, type: 3}
      propertyPath: m_LocalRotation.x
      value: -0
      objectReference: {fileID: 0}
    - target: {fileID: 4009654013808098, guid: b471d26a5eac87b4086c90c7c0b76f4e, type: 3}
      propertyPath: m_LocalRotation.y
      value: -0
      objectReference: {fileID: 0}
    - target: {fileID: 4009654013808098, guid: b471d26a5eac87b4086c90c7c0b76f4e, type: 3}
      propertyPath: m_LocalRotation.z
      value: -0
      objectReference: {fileID: 0}
    - target: {fileID: 4009654013808098, guid: b471d26a5eac87b4086c90c7c0b76f4e, type: 3}
      propertyPath: m_LocalEulerAnglesHint.x
      value: 0
      objectReference: {fileID: 0}
    - target: {fileID: 4009654013808098, guid: b471d26a5eac87b4086c90c7c0b76f4e, type: 3}
      propertyPath: m_LocalEulerAnglesHint.y
      value: 0
      objectReference: {fileID: 0}
    - target: {fileID: 4009654013808098, guid: b471d26a5eac87b4086c90c7c0b76f4e, type: 3}
      propertyPath: m_LocalEulerAnglesHint.z
      value: 0
      objectReference: {fileID: 0}
    m_RemovedComponents: []
  m_SourcePrefab: {fileID: 100100000, guid: b471d26a5eac87b4086c90c7c0b76f4e, type: 3}
--- !u!4 &955384695 stripped
Transform:
  m_CorrespondingSourceObject: {fileID: 4009654013808098, guid: b471d26a5eac87b4086c90c7c0b76f4e, type: 3}
  m_PrefabInstance: {fileID: 955384694}
  m_PrefabAsset: {fileID: 0}
--- !u!1001 &1248259888
PrefabInstance:
  m_ObjectHideFlags: 0
  serializedVersion: 2
  m_Modification:
    m_TransformParent: {fileID: 1994781393}
    m_Modifications:
    - target: {fileID: 1410880384113558, guid: b471d26a5eac87b4086c90c7c0b76f4e, type: 3}
      propertyPath: m_Name
      value: PTK_Cube_1 (2)
      objectReference: {fileID: 0}
    - target: {fileID: 4009654013808098, guid: b471d26a5eac87b4086c90c7c0b76f4e, type: 3}
      propertyPath: m_RootOrder
      value: 0
      objectReference: {fileID: 0}
    - target: {fileID: 4009654013808098, guid: b471d26a5eac87b4086c90c7c0b76f4e, type: 3}
      propertyPath: m_LocalScale.x
      value: 2
      objectReference: {fileID: 0}
    - target: {fileID: 4009654013808098, guid: b471d26a5eac87b4086c90c7c0b76f4e, type: 3}
      propertyPath: m_LocalScale.y
      value: 2
      objectReference: {fileID: 0}
    - target: {fileID: 4009654013808098, guid: b471d26a5eac87b4086c90c7c0b76f4e, type: 3}
      propertyPath: m_LocalScale.z
      value: 2
      objectReference: {fileID: 0}
    - target: {fileID: 4009654013808098, guid: b471d26a5eac87b4086c90c7c0b76f4e, type: 3}
      propertyPath: m_LocalPosition.x
      value: 4.464
      objectReference: {fileID: 0}
    - target: {fileID: 4009654013808098, guid: b471d26a5eac87b4086c90c7c0b76f4e, type: 3}
      propertyPath: m_LocalPosition.y
      value: 0
      objectReference: {fileID: 0}
    - target: {fileID: 4009654013808098, guid: b471d26a5eac87b4086c90c7c0b76f4e, type: 3}
      propertyPath: m_LocalPosition.z
      value: 6.31
      objectReference: {fileID: 0}
    - target: {fileID: 4009654013808098, guid: b471d26a5eac87b4086c90c7c0b76f4e, type: 3}
      propertyPath: m_LocalRotation.w
      value: 1
      objectReference: {fileID: 0}
    - target: {fileID: 4009654013808098, guid: b471d26a5eac87b4086c90c7c0b76f4e, type: 3}
      propertyPath: m_LocalRotation.x
      value: -0
      objectReference: {fileID: 0}
    - target: {fileID: 4009654013808098, guid: b471d26a5eac87b4086c90c7c0b76f4e, type: 3}
      propertyPath: m_LocalRotation.y
      value: -0
      objectReference: {fileID: 0}
    - target: {fileID: 4009654013808098, guid: b471d26a5eac87b4086c90c7c0b76f4e, type: 3}
      propertyPath: m_LocalRotation.z
      value: -0
      objectReference: {fileID: 0}
    - target: {fileID: 4009654013808098, guid: b471d26a5eac87b4086c90c7c0b76f4e, type: 3}
      propertyPath: m_LocalEulerAnglesHint.x
      value: 0
      objectReference: {fileID: 0}
    - target: {fileID: 4009654013808098, guid: b471d26a5eac87b4086c90c7c0b76f4e, type: 3}
      propertyPath: m_LocalEulerAnglesHint.y
      value: 0
      objectReference: {fileID: 0}
    - target: {fileID: 4009654013808098, guid: b471d26a5eac87b4086c90c7c0b76f4e, type: 3}
      propertyPath: m_LocalEulerAnglesHint.z
      value: 0
      objectReference: {fileID: 0}
    m_RemovedComponents: []
  m_SourcePrefab: {fileID: 100100000, guid: b471d26a5eac87b4086c90c7c0b76f4e, type: 3}
--- !u!4 &1248259889 stripped
Transform:
  m_CorrespondingSourceObject: {fileID: 4009654013808098, guid: b471d26a5eac87b4086c90c7c0b76f4e, type: 3}
  m_PrefabInstance: {fileID: 1248259888}
  m_PrefabAsset: {fileID: 0}
--- !u!1 &1252498311
GameObject:
  m_ObjectHideFlags: 0
  m_CorrespondingSourceObject: {fileID: 0}
  m_PrefabInstance: {fileID: 0}
  m_PrefabAsset: {fileID: 0}
  serializedVersion: 6
  m_Component:
  - component: {fileID: 1252498313}
  - component: {fileID: 1252498312}
  m_Layer: 0
  m_Name: Directional Light
  m_TagString: Untagged
  m_Icon: {fileID: 0}
  m_NavMeshLayer: 0
  m_StaticEditorFlags: 0
  m_IsActive: 1
--- !u!108 &1252498312
Light:
  m_ObjectHideFlags: 0
  m_CorrespondingSourceObject: {fileID: 0}
  m_PrefabInstance: {fileID: 0}
  m_PrefabAsset: {fileID: 0}
  m_GameObject: {fileID: 1252498311}
  m_Enabled: 1
  serializedVersion: 10
  m_Type: 1
  m_Shape: 0
  m_Color: {r: 1, g: 0.95686275, b: 0.8392157, a: 1}
  m_Intensity: 1
  m_Range: 10
  m_SpotAngle: 30
  m_InnerSpotAngle: 21.80208
  m_CookieSize: 10
  m_Shadows:
    m_Type: 2
    m_Resolution: -1
    m_CustomResolution: -1
    m_Strength: 1
    m_Bias: 0.05
    m_NormalBias: 0.4
    m_NearPlane: 0.2
    m_CullingMatrixOverride:
      e00: 1
      e01: 0
      e02: 0
      e03: 0
      e10: 0
      e11: 1
      e12: 0
      e13: 0
      e20: 0
      e21: 0
      e22: 1
      e23: 0
      e30: 0
      e31: 0
      e32: 0
      e33: 1
    m_UseCullingMatrixOverride: 0
  m_Cookie: {fileID: 0}
  m_DrawHalo: 0
  m_Flare: {fileID: 0}
  m_RenderMode: 0
  m_CullingMask:
    serializedVersion: 2
    m_Bits: 4294967295
  m_RenderingLayerMask: 1
  m_Lightmapping: 4
  m_LightShadowCasterMode: 0
  m_AreaSize: {x: 1, y: 1}
  m_BounceIntensity: 1
  m_ColorTemperature: 6570
  m_UseColorTemperature: 0
  m_BoundingSphereOverride: {x: 0, y: 0, z: 0, w: 0}
  m_UseBoundingSphereOverride: 0
  m_UseViewFrustumForShadowCasterCull: 1
  m_ShadowRadius: 0
  m_ShadowAngle: 0
--- !u!4 &1252498313
Transform:
  m_ObjectHideFlags: 0
  m_CorrespondingSourceObject: {fileID: 0}
  m_PrefabInstance: {fileID: 0}
  m_PrefabAsset: {fileID: 0}
  m_GameObject: {fileID: 1252498311}
  m_LocalRotation: {x: 0.40821788, y: -0.23456968, z: 0.10938163, w: 0.8754261}
  m_LocalPosition: {x: 0, y: 3, z: 0}
  m_LocalScale: {x: 1, y: 1, z: 1}
  m_Children: []
  m_Father: {fileID: 1994781393}
  m_RootOrder: 3
  m_LocalEulerAnglesHint: {x: 50, y: -30, z: 0}
--- !u!1001 &1341363106
PrefabInstance:
  m_ObjectHideFlags: 0
  serializedVersion: 2
  m_Modification:
    m_TransformParent: {fileID: 1994781393}
    m_Modifications:
    - target: {fileID: 1410880384113558, guid: b471d26a5eac87b4086c90c7c0b76f4e, type: 3}
      propertyPath: m_Name
      value: PTK_Cube_1 (1)
      objectReference: {fileID: 0}
    - target: {fileID: 4009654013808098, guid: b471d26a5eac87b4086c90c7c0b76f4e, type: 3}
      propertyPath: m_RootOrder
      value: 4
      objectReference: {fileID: 0}
    - target: {fileID: 4009654013808098, guid: b471d26a5eac87b4086c90c7c0b76f4e, type: 3}
      propertyPath: m_LocalPosition.x
      value: 5.07
      objectReference: {fileID: 0}
    - target: {fileID: 4009654013808098, guid: b471d26a5eac87b4086c90c7c0b76f4e, type: 3}
      propertyPath: m_LocalPosition.y
      value: 0
      objectReference: {fileID: 0}
    - target: {fileID: 4009654013808098, guid: b471d26a5eac87b4086c90c7c0b76f4e, type: 3}
      propertyPath: m_LocalPosition.z
      value: 0.3297658
      objectReference: {fileID: 0}
    - target: {fileID: 4009654013808098, guid: b471d26a5eac87b4086c90c7c0b76f4e, type: 3}
      propertyPath: m_LocalRotation.w
      value: 1
      objectReference: {fileID: 0}
    - target: {fileID: 4009654013808098, guid: b471d26a5eac87b4086c90c7c0b76f4e, type: 3}
      propertyPath: m_LocalRotation.x
      value: -0
      objectReference: {fileID: 0}
    - target: {fileID: 4009654013808098, guid: b471d26a5eac87b4086c90c7c0b76f4e, type: 3}
      propertyPath: m_LocalRotation.y
      value: -0
      objectReference: {fileID: 0}
    - target: {fileID: 4009654013808098, guid: b471d26a5eac87b4086c90c7c0b76f4e, type: 3}
      propertyPath: m_LocalRotation.z
      value: -0
      objectReference: {fileID: 0}
    - target: {fileID: 4009654013808098, guid: b471d26a5eac87b4086c90c7c0b76f4e, type: 3}
      propertyPath: m_LocalEulerAnglesHint.x
      value: 0
      objectReference: {fileID: 0}
    - target: {fileID: 4009654013808098, guid: b471d26a5eac87b4086c90c7c0b76f4e, type: 3}
      propertyPath: m_LocalEulerAnglesHint.y
      value: 0
      objectReference: {fileID: 0}
    - target: {fileID: 4009654013808098, guid: b471d26a5eac87b4086c90c7c0b76f4e, type: 3}
      propertyPath: m_LocalEulerAnglesHint.z
      value: 0
      objectReference: {fileID: 0}
    m_RemovedComponents: []
  m_SourcePrefab: {fileID: 100100000, guid: b471d26a5eac87b4086c90c7c0b76f4e, type: 3}
--- !u!4 &1341363107 stripped
Transform:
  m_CorrespondingSourceObject: {fileID: 4009654013808098, guid: b471d26a5eac87b4086c90c7c0b76f4e, type: 3}
  m_PrefabInstance: {fileID: 1341363106}
  m_PrefabAsset: {fileID: 0}
--- !u!1 &1994781392
GameObject:
  m_ObjectHideFlags: 0
  m_CorrespondingSourceObject: {fileID: 0}
  m_PrefabInstance: {fileID: 0}
  m_PrefabAsset: {fileID: 0}
  serializedVersion: 6
  m_Component:
  - component: {fileID: 1994781393}
  m_Layer: 0
  m_Name: Environment
  m_TagString: Untagged
  m_Icon: {fileID: 0}
  m_NavMeshLayer: 0
  m_StaticEditorFlags: 0
  m_IsActive: 1
--- !u!4 &1994781393
Transform:
  m_ObjectHideFlags: 0
  m_CorrespondingSourceObject: {fileID: 0}
  m_PrefabInstance: {fileID: 0}
  m_PrefabAsset: {fileID: 0}
  m_GameObject: {fileID: 1994781392}
  m_LocalRotation: {x: 0, y: 0, z: 0, w: 1}
  m_LocalPosition: {x: 0, y: 0, z: 0}
  m_LocalScale: {x: 1, y: 1, z: 1}
  m_Children:
  - {fileID: 1248259889}
  - {fileID: 955384695}
  - {fileID: 2125068926}
  - {fileID: 1252498313}
  - {fileID: 1341363107}
  m_Father: {fileID: 0}
  m_RootOrder: 0
  m_LocalEulerAnglesHint: {x: 0, y: 0, z: 0}
--- !u!1001 &2062361108
PrefabInstance:
  m_ObjectHideFlags: 0
  serializedVersion: 2
  m_Modification:
    m_TransformParent: {fileID: 0}
    m_Modifications:
    - target: {fileID: 1000520845181390181, guid: 6b7cec9e56421c948a3f9a7b6f7a6191, type: 3}
      propertyPath: m_Name
      value: Player
      objectReference: {fileID: 0}
    - target: {fileID: 1000520845181390184, guid: 6b7cec9e56421c948a3f9a7b6f7a6191, type: 3}
      propertyPath: m_RootOrder
      value: 1
      objectReference: {fileID: 0}
    - target: {fileID: 1000520845181390184, guid: 6b7cec9e56421c948a3f9a7b6f7a6191, type: 3}
      propertyPath: m_LocalPosition.x
      value: -6.27
      objectReference: {fileID: 0}
    - target: {fileID: 1000520845181390184, guid: 6b7cec9e56421c948a3f9a7b6f7a6191, type: 3}
      propertyPath: m_LocalPosition.y
      value: 0.95
      objectReference: {fileID: 0}
    - target: {fileID: 1000520845181390184, guid: 6b7cec9e56421c948a3f9a7b6f7a6191, type: 3}
      propertyPath: m_LocalPosition.z
      value: -1.12
      objectReference: {fileID: 0}
    - target: {fileID: 1000520845181390184, guid: 6b7cec9e56421c948a3f9a7b6f7a6191, type: 3}
      propertyPath: m_LocalRotation.w
      value: 1
      objectReference: {fileID: 0}
    - target: {fileID: 1000520845181390184, guid: 6b7cec9e56421c948a3f9a7b6f7a6191, type: 3}
      propertyPath: m_LocalRotation.x
      value: 0
      objectReference: {fileID: 0}
    - target: {fileID: 1000520845181390184, guid: 6b7cec9e56421c948a3f9a7b6f7a6191, type: 3}
      propertyPath: m_LocalRotation.y
      value: 0
      objectReference: {fileID: 0}
    - target: {fileID: 1000520845181390184, guid: 6b7cec9e56421c948a3f9a7b6f7a6191, type: 3}
      propertyPath: m_LocalRotation.z
      value: 0
      objectReference: {fileID: 0}
    - target: {fileID: 1000520845181390184, guid: 6b7cec9e56421c948a3f9a7b6f7a6191, type: 3}
      propertyPath: m_LocalEulerAnglesHint.x
      value: 0
      objectReference: {fileID: 0}
    - target: {fileID: 1000520845181390184, guid: 6b7cec9e56421c948a3f9a7b6f7a6191, type: 3}
      propertyPath: m_LocalEulerAnglesHint.y
      value: 0
      objectReference: {fileID: 0}
    - target: {fileID: 1000520845181390184, guid: 6b7cec9e56421c948a3f9a7b6f7a6191, type: 3}
      propertyPath: m_LocalEulerAnglesHint.z
      value: 0
      objectReference: {fileID: 0}
    m_RemovedComponents: []
  m_SourcePrefab: {fileID: 100100000, guid: 6b7cec9e56421c948a3f9a7b6f7a6191, type: 3}
--- !u!1001 &2125068925
PrefabInstance:
  m_ObjectHideFlags: 0
  serializedVersion: 2
  m_Modification:
    m_TransformParent: {fileID: 1994781393}
    m_Modifications:
    - target: {fileID: 1078868141710040, guid: db58b1eda8133c84983d20108c13888e, type: 3}
      propertyPath: m_Name
      value: PTK_Cuboid_5
      objectReference: {fileID: 0}
    - target: {fileID: 4327144084732578, guid: db58b1eda8133c84983d20108c13888e, type: 3}
      propertyPath: m_RootOrder
      value: 2
      objectReference: {fileID: 0}
    - target: {fileID: 4327144084732578, guid: db58b1eda8133c84983d20108c13888e, type: 3}
      propertyPath: m_LocalScale.x
      value: 5
      objectReference: {fileID: 0}
    - target: {fileID: 4327144084732578, guid: db58b1eda8133c84983d20108c13888e, type: 3}
      propertyPath: m_LocalScale.y
      value: 1
      objectReference: {fileID: 0}
    - target: {fileID: 4327144084732578, guid: db58b1eda8133c84983d20108c13888e, type: 3}
      propertyPath: m_LocalScale.z
      value: 5
      objectReference: {fileID: 0}
    - target: {fileID: 4327144084732578, guid: db58b1eda8133c84983d20108c13888e, type: 3}
      propertyPath: m_LocalPosition.x
      value: 0
      objectReference: {fileID: 0}
    - target: {fileID: 4327144084732578, guid: db58b1eda8133c84983d20108c13888e, type: 3}
      propertyPath: m_LocalPosition.y
      value: 0
      objectReference: {fileID: 0}
    - target: {fileID: 4327144084732578, guid: db58b1eda8133c84983d20108c13888e, type: 3}
      propertyPath: m_LocalPosition.z
      value: 0
      objectReference: {fileID: 0}
    - target: {fileID: 4327144084732578, guid: db58b1eda8133c84983d20108c13888e, type: 3}
      propertyPath: m_LocalRotation.w
      value: 1
      objectReference: {fileID: 0}
    - target: {fileID: 4327144084732578, guid: db58b1eda8133c84983d20108c13888e, type: 3}
      propertyPath: m_LocalRotation.x
      value: -0
      objectReference: {fileID: 0}
    - target: {fileID: 4327144084732578, guid: db58b1eda8133c84983d20108c13888e, type: 3}
      propertyPath: m_LocalRotation.y
      value: -0
      objectReference: {fileID: 0}
    - target: {fileID: 4327144084732578, guid: db58b1eda8133c84983d20108c13888e, type: 3}
      propertyPath: m_LocalRotation.z
      value: -0
      objectReference: {fileID: 0}
    - target: {fileID: 4327144084732578, guid: db58b1eda8133c84983d20108c13888e, type: 3}
      propertyPath: m_LocalEulerAnglesHint.x
      value: 0
      objectReference: {fileID: 0}
    - target: {fileID: 4327144084732578, guid: db58b1eda8133c84983d20108c13888e, type: 3}
      propertyPath: m_LocalEulerAnglesHint.y
      value: 0
      objectReference: {fileID: 0}
    - target: {fileID: 4327144084732578, guid: db58b1eda8133c84983d20108c13888e, type: 3}
      propertyPath: m_LocalEulerAnglesHint.z
      value: 0
      objectReference: {fileID: 0}
    m_RemovedComponents: []
  m_SourcePrefab: {fileID: 100100000, guid: db58b1eda8133c84983d20108c13888e, type: 3}
--- !u!4 &2125068926 stripped
Transform:
  m_CorrespondingSourceObject: {fileID: 4327144084732578, guid: db58b1eda8133c84983d20108c13888e, type: 3}
  m_PrefabInstance: {fileID: 2125068925}
  m_PrefabAsset: {fileID: 0}
